%YAML 1.1
%TAG !u! tag:unity3d.com,2011:
--- !u!29 &1
OcclusionCullingSettings:
  m_ObjectHideFlags: 0
  serializedVersion: 2
  m_OcclusionBakeSettings:
    smallestOccluder: 5
    smallestHole: 0.25
    backfaceThreshold: 100
  m_SceneGUID: 00000000000000000000000000000000
  m_OcclusionCullingData: {fileID: 0}
--- !u!104 &2
RenderSettings:
  m_ObjectHideFlags: 0
  serializedVersion: 9
  m_Fog: 0
  m_FogColor: {r: 0.5, g: 0.5, b: 0.5, a: 1}
  m_FogMode: 3
  m_FogDensity: 0.01
  m_LinearFogStart: 0
  m_LinearFogEnd: 300
  m_AmbientSkyColor: {r: 0.212, g: 0.227, b: 0.259, a: 1}
  m_AmbientEquatorColor: {r: 0.114, g: 0.125, b: 0.133, a: 1}
  m_AmbientGroundColor: {r: 0.047, g: 0.043, b: 0.035, a: 1}
  m_AmbientIntensity: 1
  m_AmbientMode: 3
  m_SubtractiveShadowColor: {r: 0.42, g: 0.478, b: 0.627, a: 1}
  m_SkyboxMaterial: {fileID: 0}
  m_HaloStrength: 0.5
  m_FlareStrength: 1
  m_FlareFadeSpeed: 3
  m_HaloTexture: {fileID: 0}
  m_SpotCookie: {fileID: 10001, guid: 0000000000000000e000000000000000, type: 0}
  m_DefaultReflectionMode: 0
  m_DefaultReflectionResolution: 128
  m_ReflectionBounces: 1
  m_ReflectionIntensity: 1
  m_CustomReflection: {fileID: 0}
  m_Sun: {fileID: 0}
  m_IndirectSpecularColor: {r: 0, g: 0, b: 0, a: 1}
  m_UseRadianceAmbientProbe: 0
--- !u!157 &3
LightmapSettings:
  m_ObjectHideFlags: 0
  serializedVersion: 11
  m_GIWorkflowMode: 1
  m_GISettings:
    serializedVersion: 2
    m_BounceScale: 1
    m_IndirectOutputScale: 1
    m_AlbedoBoost: 1
    m_EnvironmentLightingMode: 0
    m_EnableBakedLightmaps: 0
    m_EnableRealtimeLightmaps: 0
  m_LightmapEditorSettings:
    serializedVersion: 12
    m_Resolution: 2
    m_BakeResolution: 40
    m_AtlasSize: 1024
    m_AO: 0
    m_AOMaxDistance: 1
    m_CompAOExponent: 1
    m_CompAOExponentDirect: 0
    m_ExtractAmbientOcclusion: 0
    m_Padding: 2
    m_LightmapParameters: {fileID: 0}
    m_LightmapsBakeMode: 1
    m_TextureCompression: 1
    m_FinalGather: 0
    m_FinalGatherFiltering: 1
    m_FinalGatherRayCount: 256
    m_ReflectionCompression: 2
    m_MixedBakeMode: 2
    m_BakeBackend: 0
    m_PVRSampling: 1
    m_PVRDirectSampleCount: 32
    m_PVRSampleCount: 500
    m_PVRBounces: 2
    m_PVREnvironmentSampleCount: 500
    m_PVREnvironmentReferencePointCount: 2048
    m_PVRFilteringMode: 2
    m_PVRDenoiserTypeDirect: 0
    m_PVRDenoiserTypeIndirect: 0
    m_PVRDenoiserTypeAO: 0
    m_PVRFilterTypeDirect: 0
    m_PVRFilterTypeIndirect: 0
    m_PVRFilterTypeAO: 0
    m_PVREnvironmentMIS: 0
    m_PVRCulling: 1
    m_PVRFilteringGaussRadiusDirect: 1
    m_PVRFilteringGaussRadiusIndirect: 5
    m_PVRFilteringGaussRadiusAO: 2
    m_PVRFilteringAtrousPositionSigmaDirect: 0.5
    m_PVRFilteringAtrousPositionSigmaIndirect: 2
    m_PVRFilteringAtrousPositionSigmaAO: 1
    m_ExportTrainingData: 0
    m_TrainingDataDestination: TrainingData
    m_LightProbeSampleCountMultiplier: 4
  m_LightingDataAsset: {fileID: 0}
  m_UseShadowmask: 1
--- !u!196 &4
NavMeshSettings:
  serializedVersion: 2
  m_ObjectHideFlags: 0
  m_BuildSettings:
    serializedVersion: 2
    agentTypeID: 0
    agentRadius: 0.5
    agentHeight: 2
    agentSlope: 45
    agentClimb: 0.4
    ledgeDropHeight: 0
    maxJumpAcrossDistance: 0
    minRegionArea: 2
    manualCellSize: 0
    cellSize: 0.16666667
    manualTileSize: 0
    tileSize: 256
    accuratePlacement: 0
    debug:
      m_Flags: 0
  m_NavMeshData: {fileID: 0}
--- !u!1 &265622934 stripped
GameObject:
  m_CorrespondingSourceObject: {fileID: 4308185481486001229, guid: 95077f14b34170646b7abe43c6cd2a20,
    type: 3}
  m_PrefabInstance: {fileID: 329166705}
  m_PrefabAsset: {fileID: 0}
--- !u!1001 &329166705
PrefabInstance:
  m_ObjectHideFlags: 0
  serializedVersion: 2
  m_Modification:
    m_TransformParent: {fileID: 0}
    m_Modifications:
    - target: {fileID: 4308185481706748123, guid: 95077f14b34170646b7abe43c6cd2a20,
        type: 3}
      propertyPath: m_Name
      value: Canvas
      objectReference: {fileID: 0}
    - target: {fileID: 4308185481706748127, guid: 95077f14b34170646b7abe43c6cd2a20,
        type: 3}
      propertyPath: m_LocalPosition.x
      value: 0
      objectReference: {fileID: 0}
    - target: {fileID: 4308185481706748127, guid: 95077f14b34170646b7abe43c6cd2a20,
        type: 3}
      propertyPath: m_LocalPosition.y
      value: 0
      objectReference: {fileID: 0}
    - target: {fileID: 4308185481706748127, guid: 95077f14b34170646b7abe43c6cd2a20,
        type: 3}
      propertyPath: m_LocalPosition.z
      value: 0
      objectReference: {fileID: 0}
    - target: {fileID: 4308185481706748127, guid: 95077f14b34170646b7abe43c6cd2a20,
        type: 3}
      propertyPath: m_LocalRotation.x
      value: 0
      objectReference: {fileID: 0}
    - target: {fileID: 4308185481706748127, guid: 95077f14b34170646b7abe43c6cd2a20,
        type: 3}
      propertyPath: m_LocalRotation.y
      value: 0
      objectReference: {fileID: 0}
    - target: {fileID: 4308185481706748127, guid: 95077f14b34170646b7abe43c6cd2a20,
        type: 3}
      propertyPath: m_LocalRotation.z
      value: 0
      objectReference: {fileID: 0}
    - target: {fileID: 4308185481706748127, guid: 95077f14b34170646b7abe43c6cd2a20,
        type: 3}
      propertyPath: m_LocalRotation.w
      value: 1
      objectReference: {fileID: 0}
    - target: {fileID: 4308185481706748127, guid: 95077f14b34170646b7abe43c6cd2a20,
        type: 3}
      propertyPath: m_RootOrder
      value: 7
      objectReference: {fileID: 0}
    - target: {fileID: 4308185481706748127, guid: 95077f14b34170646b7abe43c6cd2a20,
        type: 3}
      propertyPath: m_LocalEulerAnglesHint.x
      value: 0
      objectReference: {fileID: 0}
    - target: {fileID: 4308185481706748127, guid: 95077f14b34170646b7abe43c6cd2a20,
        type: 3}
      propertyPath: m_LocalEulerAnglesHint.y
      value: 0
      objectReference: {fileID: 0}
    - target: {fileID: 4308185481706748127, guid: 95077f14b34170646b7abe43c6cd2a20,
        type: 3}
      propertyPath: m_LocalEulerAnglesHint.z
      value: 0
      objectReference: {fileID: 0}
    - target: {fileID: 4308185481706748127, guid: 95077f14b34170646b7abe43c6cd2a20,
        type: 3}
      propertyPath: m_AnchoredPosition.x
      value: 0
      objectReference: {fileID: 0}
    - target: {fileID: 4308185481706748127, guid: 95077f14b34170646b7abe43c6cd2a20,
        type: 3}
      propertyPath: m_AnchoredPosition.y
      value: 0
      objectReference: {fileID: 0}
    - target: {fileID: 4308185481706748127, guid: 95077f14b34170646b7abe43c6cd2a20,
        type: 3}
      propertyPath: m_SizeDelta.x
      value: 0
      objectReference: {fileID: 0}
    - target: {fileID: 4308185481706748127, guid: 95077f14b34170646b7abe43c6cd2a20,
        type: 3}
      propertyPath: m_SizeDelta.y
      value: 0
      objectReference: {fileID: 0}
    - target: {fileID: 4308185481706748127, guid: 95077f14b34170646b7abe43c6cd2a20,
        type: 3}
      propertyPath: m_AnchorMin.x
      value: 0
      objectReference: {fileID: 0}
    - target: {fileID: 4308185481706748127, guid: 95077f14b34170646b7abe43c6cd2a20,
        type: 3}
      propertyPath: m_AnchorMin.y
      value: 0
      objectReference: {fileID: 0}
    - target: {fileID: 4308185481706748127, guid: 95077f14b34170646b7abe43c6cd2a20,
        type: 3}
      propertyPath: m_AnchorMax.x
      value: 0
      objectReference: {fileID: 0}
    - target: {fileID: 4308185481706748127, guid: 95077f14b34170646b7abe43c6cd2a20,
        type: 3}
      propertyPath: m_AnchorMax.y
      value: 0
      objectReference: {fileID: 0}
    - target: {fileID: 4308185481706748127, guid: 95077f14b34170646b7abe43c6cd2a20,
        type: 3}
      propertyPath: m_Pivot.x
      value: 0
      objectReference: {fileID: 0}
    - target: {fileID: 4308185481706748127, guid: 95077f14b34170646b7abe43c6cd2a20,
        type: 3}
      propertyPath: m_Pivot.y
      value: 0
      objectReference: {fileID: 0}
    - target: {fileID: 4308185482986189582, guid: 95077f14b34170646b7abe43c6cd2a20,
        type: 3}
      propertyPath: m_AnchoredPosition.x
      value: 29.100098
      objectReference: {fileID: 0}
    - target: {fileID: 4308185482986189582, guid: 95077f14b34170646b7abe43c6cd2a20,
        type: 3}
      propertyPath: m_AnchoredPosition.y
      value: -15.199951
      objectReference: {fileID: 0}
    m_RemovedComponents: []
  m_SourcePrefab: {fileID: 100100000, guid: 95077f14b34170646b7abe43c6cd2a20, type: 3}
--- !u!114 &329166706 stripped
MonoBehaviour:
  m_CorrespondingSourceObject: {fileID: 4308185482551363115, guid: 95077f14b34170646b7abe43c6cd2a20,
    type: 3}
  m_PrefabInstance: {fileID: 329166705}
  m_PrefabAsset: {fileID: 0}
  m_GameObject: {fileID: 0}
  m_Enabled: 1
  m_EditorHideFlags: 0
  m_Script: {fileID: 11500000, guid: f4688fdb7df04437aeb418b961361dc5, type: 3}
  m_Name: 
  m_EditorClassIdentifier: 
--- !u!114 &329166707 stripped
MonoBehaviour:
  m_CorrespondingSourceObject: {fileID: 4308185482986189583, guid: 95077f14b34170646b7abe43c6cd2a20,
    type: 3}
  m_PrefabInstance: {fileID: 329166705}
  m_PrefabAsset: {fileID: 0}
  m_GameObject: {fileID: 0}
  m_Enabled: 1
  m_EditorHideFlags: 0
  m_Script: {fileID: 11500000, guid: f4688fdb7df04437aeb418b961361dc5, type: 3}
  m_Name: 
  m_EditorClassIdentifier: 
--- !u!1 &329166708 stripped
GameObject:
  m_CorrespondingSourceObject: {fileID: 4308185483040889093, guid: 95077f14b34170646b7abe43c6cd2a20,
    type: 3}
  m_PrefabInstance: {fileID: 329166705}
  m_PrefabAsset: {fileID: 0}
--- !u!114 &329166709 stripped
MonoBehaviour:
  m_CorrespondingSourceObject: {fileID: 4308185482547134407, guid: 95077f14b34170646b7abe43c6cd2a20,
    type: 3}
  m_PrefabInstance: {fileID: 329166705}
  m_PrefabAsset: {fileID: 0}
  m_GameObject: {fileID: 0}
  m_Enabled: 1
  m_EditorHideFlags: 0
  m_Script: {fileID: 11500000, guid: f4688fdb7df04437aeb418b961361dc5, type: 3}
  m_Name: 
  m_EditorClassIdentifier: 
--- !u!1 &519420028
GameObject:
  m_ObjectHideFlags: 0
  m_CorrespondingSourceObject: {fileID: 0}
  m_PrefabInstance: {fileID: 0}
  m_PrefabAsset: {fileID: 0}
  serializedVersion: 6
  m_Component:
  - component: {fileID: 519420032}
  - component: {fileID: 519420031}
  - component: {fileID: 519420029}
  m_Layer: 0
  m_Name: Main Camera
  m_TagString: MainCamera
  m_Icon: {fileID: 0}
  m_NavMeshLayer: 0
  m_StaticEditorFlags: 0
  m_IsActive: 1
--- !u!81 &519420029
AudioListener:
  m_ObjectHideFlags: 0
  m_CorrespondingSourceObject: {fileID: 0}
  m_PrefabInstance: {fileID: 0}
  m_PrefabAsset: {fileID: 0}
  m_GameObject: {fileID: 519420028}
  m_Enabled: 1
--- !u!20 &519420031
Camera:
  m_ObjectHideFlags: 0
  m_CorrespondingSourceObject: {fileID: 0}
  m_PrefabInstance: {fileID: 0}
  m_PrefabAsset: {fileID: 0}
  m_GameObject: {fileID: 519420028}
  m_Enabled: 1
  serializedVersion: 2
  m_ClearFlags: 2
  m_BackGroundColor: {r: 0.19215687, g: 0.3019608, b: 0.4745098, a: 0}
  m_projectionMatrixMode: 1
  m_GateFitMode: 2
  m_FOVAxisMode: 0
  m_SensorSize: {x: 36, y: 24}
  m_LensShift: {x: 0, y: 0}
  m_FocalLength: 50
  m_NormalizedViewPortRect:
    serializedVersion: 2
    x: 0
    y: 0
    width: 1
    height: 1
  near clip plane: 0.3
  far clip plane: 1000
  field of view: 60
  orthographic: 1
  orthographic size: 5
  m_Depth: -1
  m_CullingMask:
    serializedVersion: 2
    m_Bits: 4294967295
  m_RenderingPath: -1
  m_TargetTexture: {fileID: 0}
  m_TargetDisplay: 0
  m_TargetEye: 0
  m_HDR: 1
  m_AllowMSAA: 0
  m_AllowDynamicResolution: 0
  m_ForceIntoRT: 0
  m_OcclusionCulling: 0
  m_StereoConvergence: 10
  m_StereoSeparation: 0.022
--- !u!4 &519420032
Transform:
  m_ObjectHideFlags: 0
  m_CorrespondingSourceObject: {fileID: 0}
  m_PrefabInstance: {fileID: 0}
  m_PrefabAsset: {fileID: 0}
  m_GameObject: {fileID: 519420028}
  m_LocalRotation: {x: 0, y: 0, z: 0, w: 1}
  m_LocalPosition: {x: 0, y: 0, z: -10}
  m_LocalScale: {x: 1, y: 1, z: 1}
  m_Children: []
  m_Father: {fileID: 0}
  m_RootOrder: 0
  m_LocalEulerAnglesHint: {x: 0, y: 0, z: 0}
--- !u!1001 &676934105
PrefabInstance:
  m_ObjectHideFlags: 0
  serializedVersion: 2
  m_Modification:
    m_TransformParent: {fileID: 0}
    m_Modifications:
    - target: {fileID: 913366208191550928, guid: a043b01b41e38694396fafdb9bb91d80,
        type: 3}
      propertyPath: m_Name
      value: GameplayManager
      objectReference: {fileID: 0}
    - target: {fileID: 913366208191550958, guid: a043b01b41e38694396fafdb9bb91d80,
        type: 3}
      propertyPath: scoreText
      value: 
      objectReference: {fileID: 329166706}
    - target: {fileID: 913366208191550958, guid: a043b01b41e38694396fafdb9bb91d80,
        type: 3}
      propertyPath: pauseMenu
      value: 
      objectReference: {fileID: 265622934}
    - target: {fileID: 913366208191550958, guid: a043b01b41e38694396fafdb9bb91d80,
        type: 3}
      propertyPath: victoryMenu
      value: 
      objectReference: {fileID: 1984118353}
    - target: {fileID: 913366208191550958, guid: a043b01b41e38694396fafdb9bb91d80,
        type: 3}
      propertyPath: endScoreText
      value: 
      objectReference: {fileID: 329166706}
    - target: {fileID: 913366208191550958, guid: a043b01b41e38694396fafdb9bb91d80,
        type: 3}
      propertyPath: gameOverMenu
      value: 
      objectReference: {fileID: 329166708}
    - target: {fileID: 913366208191550958, guid: a043b01b41e38694396fafdb9bb91d80,
        type: 3}
      propertyPath: lifeText
      value: 
      objectReference: {fileID: 329166707}
    - target: {fileID: 913366208191550958, guid: a043b01b41e38694396fafdb9bb91d80,
        type: 3}
      propertyPath: pvText
      value: 
      objectReference: {fileID: 329166709}
    - target: {fileID: 913366208191550958, guid: a043b01b41e38694396fafdb9bb91d80,
        type: 3}
      propertyPath: enemyspawner
      value: 
      objectReference: {fileID: 2026421804}
    - target: {fileID: 913366208191550959, guid: a043b01b41e38694396fafdb9bb91d80,
        type: 3}
      propertyPath: m_LocalPosition.x
      value: 0
      objectReference: {fileID: 0}
    - target: {fileID: 913366208191550959, guid: a043b01b41e38694396fafdb9bb91d80,
        type: 3}
      propertyPath: m_LocalPosition.y
      value: 0
      objectReference: {fileID: 0}
    - target: {fileID: 913366208191550959, guid: a043b01b41e38694396fafdb9bb91d80,
        type: 3}
      propertyPath: m_LocalPosition.z
      value: 0
      objectReference: {fileID: 0}
    - target: {fileID: 913366208191550959, guid: a043b01b41e38694396fafdb9bb91d80,
        type: 3}
      propertyPath: m_LocalRotation.x
      value: 0
      objectReference: {fileID: 0}
    - target: {fileID: 913366208191550959, guid: a043b01b41e38694396fafdb9bb91d80,
        type: 3}
      propertyPath: m_LocalRotation.y
      value: 0
      objectReference: {fileID: 0}
    - target: {fileID: 913366208191550959, guid: a043b01b41e38694396fafdb9bb91d80,
        type: 3}
      propertyPath: m_LocalRotation.z
      value: 0
      objectReference: {fileID: 0}
    - target: {fileID: 913366208191550959, guid: a043b01b41e38694396fafdb9bb91d80,
        type: 3}
      propertyPath: m_LocalRotation.w
      value: 1
      objectReference: {fileID: 0}
    - target: {fileID: 913366208191550959, guid: a043b01b41e38694396fafdb9bb91d80,
        type: 3}
      propertyPath: m_RootOrder
      value: 6
      objectReference: {fileID: 0}
    - target: {fileID: 913366208191550959, guid: a043b01b41e38694396fafdb9bb91d80,
        type: 3}
      propertyPath: m_LocalEulerAnglesHint.x
      value: 0
      objectReference: {fileID: 0}
    - target: {fileID: 913366208191550959, guid: a043b01b41e38694396fafdb9bb91d80,
        type: 3}
      propertyPath: m_LocalEulerAnglesHint.y
      value: 0
      objectReference: {fileID: 0}
    - target: {fileID: 913366208191550959, guid: a043b01b41e38694396fafdb9bb91d80,
        type: 3}
      propertyPath: m_LocalEulerAnglesHint.z
      value: 0
      objectReference: {fileID: 0}
    m_RemovedComponents: []
  m_SourcePrefab: {fileID: 100100000, guid: a043b01b41e38694396fafdb9bb91d80, type: 3}
--- !u!1 &727588643
GameObject:
  m_ObjectHideFlags: 0
  m_CorrespondingSourceObject: {fileID: 0}
  m_PrefabInstance: {fileID: 0}
  m_PrefabAsset: {fileID: 0}
  serializedVersion: 6
  m_Component:
  - component: {fileID: 727588646}
  - component: {fileID: 727588645}
  - component: {fileID: 727588644}
  m_Layer: 0
  m_Name: EventSystem
  m_TagString: Untagged
  m_Icon: {fileID: 0}
  m_NavMeshLayer: 0
  m_StaticEditorFlags: 0
  m_IsActive: 1
--- !u!114 &727588644
MonoBehaviour:
  m_ObjectHideFlags: 0
  m_CorrespondingSourceObject: {fileID: 0}
  m_PrefabInstance: {fileID: 0}
  m_PrefabAsset: {fileID: 0}
  m_GameObject: {fileID: 727588643}
  m_Enabled: 1
  m_EditorHideFlags: 0
  m_Script: {fileID: 11500000, guid: 4f231c4fb786f3946a6b90b886c48677, type: 3}
  m_Name: 
  m_EditorClassIdentifier: 
  m_HorizontalAxis: Horizontal
  m_VerticalAxis: Vertical
  m_SubmitButton: Submit
  m_CancelButton: Cancel
  m_InputActionsPerSecond: 10
  m_RepeatDelay: 0.5
  m_ForceModuleActive: 0
--- !u!114 &727588645
MonoBehaviour:
  m_ObjectHideFlags: 0
  m_CorrespondingSourceObject: {fileID: 0}
  m_PrefabInstance: {fileID: 0}
  m_PrefabAsset: {fileID: 0}
  m_GameObject: {fileID: 727588643}
  m_Enabled: 1
  m_EditorHideFlags: 0
  m_Script: {fileID: 11500000, guid: 76c392e42b5098c458856cdf6ecaaaa1, type: 3}
  m_Name: 
  m_EditorClassIdentifier: 
  m_FirstSelected: {fileID: 0}
  m_sendNavigationEvents: 1
  m_DragThreshold: 10
--- !u!4 &727588646
Transform:
  m_ObjectHideFlags: 0
  m_CorrespondingSourceObject: {fileID: 0}
  m_PrefabInstance: {fileID: 0}
  m_PrefabAsset: {fileID: 0}
  m_GameObject: {fileID: 727588643}
  m_LocalRotation: {x: 0, y: 0, z: 0, w: 1}
  m_LocalPosition: {x: 0, y: 0, z: 0}
  m_LocalScale: {x: 1, y: 1, z: 1}
  m_Children: []
  m_Father: {fileID: 0}
  m_RootOrder: 8
  m_LocalEulerAnglesHint: {x: 0, y: 0, z: 0}
--- !u!1001 &1158219872
PrefabInstance:
  m_ObjectHideFlags: 0
  serializedVersion: 2
  m_Modification:
    m_TransformParent: {fileID: 0}
    m_Modifications:
    - target: {fileID: 3077721505243071920, guid: 5425be946e7f47b4891dc7e4496af508,
        type: 3}
      propertyPath: m_Name
      value: PlayerBullet
      objectReference: {fileID: 0}
    - target: {fileID: 3077721505243071926, guid: 5425be946e7f47b4891dc7e4496af508,
        type: 3}
      propertyPath: m_LocalPosition.x
      value: 8.445757
      objectReference: {fileID: 0}
    - target: {fileID: 3077721505243071926, guid: 5425be946e7f47b4891dc7e4496af508,
        type: 3}
      propertyPath: m_LocalPosition.y
      value: -1.1209843
      objectReference: {fileID: 0}
    - target: {fileID: 3077721505243071926, guid: 5425be946e7f47b4891dc7e4496af508,
        type: 3}
      propertyPath: m_LocalPosition.z
      value: 0
      objectReference: {fileID: 0}
    - target: {fileID: 3077721505243071926, guid: 5425be946e7f47b4891dc7e4496af508,
        type: 3}
      propertyPath: m_LocalRotation.x
      value: 0
      objectReference: {fileID: 0}
    - target: {fileID: 3077721505243071926, guid: 5425be946e7f47b4891dc7e4496af508,
        type: 3}
      propertyPath: m_LocalRotation.y
      value: 0
      objectReference: {fileID: 0}
    - target: {fileID: 3077721505243071926, guid: 5425be946e7f47b4891dc7e4496af508,
        type: 3}
      propertyPath: m_LocalRotation.z
      value: 0
      objectReference: {fileID: 0}
    - target: {fileID: 3077721505243071926, guid: 5425be946e7f47b4891dc7e4496af508,
        type: 3}
      propertyPath: m_LocalRotation.w
      value: 1
      objectReference: {fileID: 0}
    - target: {fileID: 3077721505243071926, guid: 5425be946e7f47b4891dc7e4496af508,
        type: 3}
      propertyPath: m_RootOrder
      value: 2
      objectReference: {fileID: 0}
    - target: {fileID: 3077721505243071926, guid: 5425be946e7f47b4891dc7e4496af508,
        type: 3}
      propertyPath: m_LocalEulerAnglesHint.x
      value: 0
      objectReference: {fileID: 0}
    - target: {fileID: 3077721505243071926, guid: 5425be946e7f47b4891dc7e4496af508,
        type: 3}
      propertyPath: m_LocalEulerAnglesHint.y
      value: 0
      objectReference: {fileID: 0}
    - target: {fileID: 3077721505243071926, guid: 5425be946e7f47b4891dc7e4496af508,
        type: 3}
      propertyPath: m_LocalEulerAnglesHint.z
      value: 0
      objectReference: {fileID: 0}
    m_RemovedComponents: []
  m_SourcePrefab: {fileID: 100100000, guid: 5425be946e7f47b4891dc7e4496af508, type: 3}
--- !u!1 &1158219873 stripped
GameObject:
  m_CorrespondingSourceObject: {fileID: 3077721505243071920, guid: 5425be946e7f47b4891dc7e4496af508,
    type: 3}
  m_PrefabInstance: {fileID: 1158219872}
  m_PrefabAsset: {fileID: 0}
--- !u!1 &1527773048
GameObject:
  m_ObjectHideFlags: 0
  m_CorrespondingSourceObject: {fileID: 0}
  m_PrefabInstance: {fileID: 0}
  m_PrefabAsset: {fileID: 0}
  serializedVersion: 6
  m_Component:
  - component: {fileID: 1527773049}
  m_Layer: 0
  m_Name: ShipList
  m_TagString: Untagged
  m_Icon: {fileID: 0}
  m_NavMeshLayer: 0
  m_StaticEditorFlags: 0
  m_IsActive: 1
--- !u!4 &1527773049
Transform:
  m_ObjectHideFlags: 0
  m_CorrespondingSourceObject: {fileID: 0}
  m_PrefabInstance: {fileID: 0}
  m_PrefabAsset: {fileID: 0}
  m_GameObject: {fileID: 1527773048}
  m_LocalRotation: {x: 0, y: 0, z: 0, w: 1}
  m_LocalPosition: {x: -12.951153, y: -25.03557, z: -6.5859375}
  m_LocalScale: {x: 1, y: 1, z: 1}
  m_Children: []
  m_Father: {fileID: 0}
  m_RootOrder: 9
  m_LocalEulerAnglesHint: {x: 0, y: 0, z: 0}
--- !u!1 &1984118353 stripped
GameObject:
  m_CorrespondingSourceObject: {fileID: 4308185482780271749, guid: 95077f14b34170646b7abe43c6cd2a20,
    type: 3}
  m_PrefabInstance: {fileID: 329166705}
  m_PrefabAsset: {fileID: 0}
--- !u!114 &2026421804 stripped
MonoBehaviour:
  m_CorrespondingSourceObject: {fileID: 5848113979475268184, guid: e68be37af8fdc3342b597b451dd3150d,
    type: 3}
  m_PrefabInstance: {fileID: 5848113980785409435}
  m_PrefabAsset: {fileID: 0}
  m_GameObject: {fileID: 0}
  m_Enabled: 1
  m_EditorHideFlags: 0
  m_Script: {fileID: 11500000, guid: c4aa88fb95f2d6b4f98537bcc08885f4, type: 3}
  m_Name: 
  m_EditorClassIdentifier: 
--- !u!1001 &3605433126442262821
PrefabInstance:
  m_ObjectHideFlags: 0
  serializedVersion: 2
  m_Modification:
    m_TransformParent: {fileID: 0}
    m_Modifications:
    - target: {fileID: 3605433125272239332, guid: 40fe57749e5fe754da589d4cf7eb6c2c,
        type: 3}
      propertyPath: m_Name
      value: ObjectPooler
      objectReference: {fileID: 0}
    - target: {fileID: 3605433125272239334, guid: 40fe57749e5fe754da589d4cf7eb6c2c,
        type: 3}
      propertyPath: pools.Array.data[0].bulletPrefab
      value: 
      objectReference: {fileID: 1158219873}
    - target: {fileID: 3605433125272239335, guid: 40fe57749e5fe754da589d4cf7eb6c2c,
        type: 3}
      propertyPath: m_LocalPosition.x
      value: 1.3491092
      objectReference: {fileID: 0}
    - target: {fileID: 3605433125272239335, guid: 40fe57749e5fe754da589d4cf7eb6c2c,
        type: 3}
      propertyPath: m_LocalPosition.y
      value: -0.30793312
      objectReference: {fileID: 0}
    - target: {fileID: 3605433125272239335, guid: 40fe57749e5fe754da589d4cf7eb6c2c,
        type: 3}
      propertyPath: m_LocalPosition.z
      value: -3.765625
      objectReference: {fileID: 0}
    - target: {fileID: 3605433125272239335, guid: 40fe57749e5fe754da589d4cf7eb6c2c,
        type: 3}
      propertyPath: m_LocalRotation.x
      value: 0
      objectReference: {fileID: 0}
    - target: {fileID: 3605433125272239335, guid: 40fe57749e5fe754da589d4cf7eb6c2c,
        type: 3}
      propertyPath: m_LocalRotation.y
      value: 0
      objectReference: {fileID: 0}
    - target: {fileID: 3605433125272239335, guid: 40fe57749e5fe754da589d4cf7eb6c2c,
        type: 3}
      propertyPath: m_LocalRotation.z
      value: 0
      objectReference: {fileID: 0}
    - target: {fileID: 3605433125272239335, guid: 40fe57749e5fe754da589d4cf7eb6c2c,
        type: 3}
      propertyPath: m_LocalRotation.w
      value: 1
      objectReference: {fileID: 0}
    - target: {fileID: 3605433125272239335, guid: 40fe57749e5fe754da589d4cf7eb6c2c,
        type: 3}
      propertyPath: m_RootOrder
      value: 5
      objectReference: {fileID: 0}
    - target: {fileID: 3605433125272239335, guid: 40fe57749e5fe754da589d4cf7eb6c2c,
        type: 3}
      propertyPath: m_LocalEulerAnglesHint.x
      value: 0
      objectReference: {fileID: 0}
    - target: {fileID: 3605433125272239335, guid: 40fe57749e5fe754da589d4cf7eb6c2c,
        type: 3}
      propertyPath: m_LocalEulerAnglesHint.y
      value: 0
      objectReference: {fileID: 0}
    - target: {fileID: 3605433125272239335, guid: 40fe57749e5fe754da589d4cf7eb6c2c,
        type: 3}
      propertyPath: m_LocalEulerAnglesHint.z
      value: 0
      objectReference: {fileID: 0}
    m_RemovedComponents: []
  m_SourcePrefab: {fileID: 100100000, guid: 40fe57749e5fe754da589d4cf7eb6c2c, type: 3}
--- !u!1001 &5848113980785409435
PrefabInstance:
  m_ObjectHideFlags: 0
  serializedVersion: 2
  m_Modification:
    m_TransformParent: {fileID: 0}
    m_Modifications:
    - target: {fileID: 5848113979475268184, guid: e68be37af8fdc3342b597b451dd3150d,
        type: 3}
      propertyPath: shipList
      value: 
      objectReference: {fileID: 1527773048}
    - target: {fileID: 5848113979475268184, guid: e68be37af8fdc3342b597b451dd3150d,
        type: 3}
      propertyPath: bossPrefabLevel
      value: 
      objectReference: {fileID: 3955715352687846292, guid: a359a8545f3af484a842c8b6d6defa14,
        type: 3}
    - target: {fileID: 5848113979475268185, guid: e68be37af8fdc3342b597b451dd3150d,
        type: 3}
      propertyPath: m_LocalPosition.x
      value: 0.01
      objectReference: {fileID: 0}
    - target: {fileID: 5848113979475268185, guid: e68be37af8fdc3342b597b451dd3150d,
        type: 3}
      propertyPath: m_LocalPosition.y
      value: 4.82
      objectReference: {fileID: 0}
    - target: {fileID: 5848113979475268185, guid: e68be37af8fdc3342b597b451dd3150d,
        type: 3}
      propertyPath: m_LocalPosition.z
      value: -0.98046875
      objectReference: {fileID: 0}
    - target: {fileID: 5848113979475268185, guid: e68be37af8fdc3342b597b451dd3150d,
        type: 3}
      propertyPath: m_LocalRotation.x
      value: 0
      objectReference: {fileID: 0}
    - target: {fileID: 5848113979475268185, guid: e68be37af8fdc3342b597b451dd3150d,
        type: 3}
      propertyPath: m_LocalRotation.y
      value: 0
      objectReference: {fileID: 0}
    - target: {fileID: 5848113979475268185, guid: e68be37af8fdc3342b597b451dd3150d,
        type: 3}
      propertyPath: m_LocalRotation.z
      value: 0
      objectReference: {fileID: 0}
    - target: {fileID: 5848113979475268185, guid: e68be37af8fdc3342b597b451dd3150d,
        type: 3}
      propertyPath: m_LocalRotation.w
      value: 1
      objectReference: {fileID: 0}
    - target: {fileID: 5848113979475268185, guid: e68be37af8fdc3342b597b451dd3150d,
        type: 3}
      propertyPath: m_RootOrder
      value: 3
      objectReference: {fileID: 0}
    - target: {fileID: 5848113979475268185, guid: e68be37af8fdc3342b597b451dd3150d,
        type: 3}
      propertyPath: m_LocalEulerAnglesHint.x
      value: 0
      objectReference: {fileID: 0}
    - target: {fileID: 5848113979475268185, guid: e68be37af8fdc3342b597b451dd3150d,
        type: 3}
      propertyPath: m_LocalEulerAnglesHint.y
      value: 0
      objectReference: {fileID: 0}
    - target: {fileID: 5848113979475268185, guid: e68be37af8fdc3342b597b451dd3150d,
        type: 3}
      propertyPath: m_LocalEulerAnglesHint.z
      value: 0
      objectReference: {fileID: 0}
    - target: {fileID: 5848113979475268186, guid: e68be37af8fdc3342b597b451dd3150d,
        type: 3}
      propertyPath: m_Name
      value: EnemySpawner
      objectReference: {fileID: 0}
    m_RemovedComponents: []
  m_SourcePrefab: {fileID: 100100000, guid: e68be37af8fdc3342b597b451dd3150d, type: 3}
--- !u!1001 &7614467903147795765
PrefabInstance:
  m_ObjectHideFlags: 0
  serializedVersion: 2
  m_Modification:
    m_TransformParent: {fileID: 0}
    m_Modifications:
    - target: {fileID: 7614467901504434120, guid: 0838b43f6d6dc9a47862425298a53a0c,
        type: 3}
      propertyPath: m_Name
      value: RespawnPoint
      objectReference: {fileID: 0}
    - target: {fileID: 7614467901504434123, guid: 0838b43f6d6dc9a47862425298a53a0c,
        type: 3}
      propertyPath: m_LocalPosition.x
      value: -0.09
      objectReference: {fileID: 0}
    - target: {fileID: 7614467901504434123, guid: 0838b43f6d6dc9a47862425298a53a0c,
        type: 3}
      propertyPath: m_LocalPosition.y
      value: -3.84
      objectReference: {fileID: 0}
    - target: {fileID: 7614467901504434123, guid: 0838b43f6d6dc9a47862425298a53a0c,
        type: 3}
      propertyPath: m_LocalPosition.z
      value: -2.038296
      objectReference: {fileID: 0}
    - target: {fileID: 7614467901504434123, guid: 0838b43f6d6dc9a47862425298a53a0c,
        type: 3}
      propertyPath: m_LocalRotation.x
      value: 0
      objectReference: {fileID: 0}
    - target: {fileID: 7614467901504434123, guid: 0838b43f6d6dc9a47862425298a53a0c,
        type: 3}
      propertyPath: m_LocalRotation.y
      value: 0
      objectReference: {fileID: 0}
    - target: {fileID: 7614467901504434123, guid: 0838b43f6d6dc9a47862425298a53a0c,
        type: 3}
      propertyPath: m_LocalRotation.z
      value: 0
      objectReference: {fileID: 0}
    - target: {fileID: 7614467901504434123, guid: 0838b43f6d6dc9a47862425298a53a0c,
        type: 3}
      propertyPath: m_LocalRotation.w
      value: 1
      objectReference: {fileID: 0}
    - target: {fileID: 7614467901504434123, guid: 0838b43f6d6dc9a47862425298a53a0c,
        type: 3}
      propertyPath: m_RootOrder
      value: 4
      objectReference: {fileID: 0}
    - target: {fileID: 7614467901504434123, guid: 0838b43f6d6dc9a47862425298a53a0c,
        type: 3}
      propertyPath: m_LocalEulerAnglesHint.x
      value: 0
      objectReference: {fileID: 0}
    - target: {fileID: 7614467901504434123, guid: 0838b43f6d6dc9a47862425298a53a0c,
        type: 3}
      propertyPath: m_LocalEulerAnglesHint.y
      value: 0
      objectReference: {fileID: 0}
    - target: {fileID: 7614467901504434123, guid: 0838b43f6d6dc9a47862425298a53a0c,
        type: 3}
      propertyPath: m_LocalEulerAnglesHint.z
      value: 0
      objectReference: {fileID: 0}
    m_RemovedComponents: []
  m_SourcePrefab: {fileID: 100100000, guid: 0838b43f6d6dc9a47862425298a53a0c, type: 3}
--- !u!1001 &9143436718738499284
PrefabInstance:
  m_ObjectHideFlags: 0
  serializedVersion: 2
  m_Modification:
    m_TransformParent: {fileID: 0}
    m_Modifications:
    - target: {fileID: 7234631223571071492, guid: 2dd8e31e44ca9cd48b0235bac5ad6544,
        type: 3}
      propertyPath: m_Name
      value: Ship
      objectReference: {fileID: 0}
    - target: {fileID: 7234631223571071494, guid: 2dd8e31e44ca9cd48b0235bac5ad6544,
        type: 3}
      propertyPath: m_LocalPosition.x
      value: 0.062133312
      objectReference: {fileID: 0}
    - target: {fileID: 7234631223571071494, guid: 2dd8e31e44ca9cd48b0235bac5ad6544,
        type: 3}
      propertyPath: m_LocalPosition.y
      value: -3.566992
      objectReference: {fileID: 0}
    - target: {fileID: 7234631223571071494, guid: 2dd8e31e44ca9cd48b0235bac5ad6544,
        type: 3}
      propertyPath: m_LocalPosition.z
      value: 0
      objectReference: {fileID: 0}
    - target: {fileID: 7234631223571071494, guid: 2dd8e31e44ca9cd48b0235bac5ad6544,
        type: 3}
      propertyPath: m_LocalRotation.x
      value: 0
      objectReference: {fileID: 0}
    - target: {fileID: 7234631223571071494, guid: 2dd8e31e44ca9cd48b0235bac5ad6544,
        type: 3}
      propertyPath: m_LocalRotation.y
      value: 0
      objectReference: {fileID: 0}
    - target: {fileID: 7234631223571071494, guid: 2dd8e31e44ca9cd48b0235bac5ad6544,
        type: 3}
      propertyPath: m_LocalRotation.z
      value: 0
      objectReference: {fileID: 0}
    - target: {fileID: 7234631223571071494, guid: 2dd8e31e44ca9cd48b0235bac5ad6544,
        type: 3}
      propertyPath: m_LocalRotation.w
      value: 1
      objectReference: {fileID: 0}
    - target: {fileID: 7234631223571071494, guid: 2dd8e31e44ca9cd48b0235bac5ad6544,
        type: 3}
      propertyPath: m_RootOrder
      value: 1
      objectReference: {fileID: 0}
    - target: {fileID: 7234631223571071494, guid: 2dd8e31e44ca9cd48b0235bac5ad6544,
        type: 3}
      propertyPath: m_LocalEulerAnglesHint.x
      value: 0
      objectReference: {fileID: 0}
    - target: {fileID: 7234631223571071494, guid: 2dd8e31e44ca9cd48b0235bac5ad6544,
        type: 3}
      propertyPath: m_LocalEulerAnglesHint.y
      value: 0
      objectReference: {fileID: 0}
    - target: {fileID: 7234631223571071494, guid: 2dd8e31e44ca9cd48b0235bac5ad6544,
        type: 3}
      propertyPath: m_LocalEulerAnglesHint.z
      value: 0
      objectReference: {fileID: 0}
    m_RemovedComponents: []
  m_SourcePrefab: {fileID: 100100000, guid: 2dd8e31e44ca9cd48b0235bac5ad6544, type: 3}
